{
  "project_info": {
    "project_number": "49146510855",
    "firebase_url": "https://topito-mood.firebaseio.com",
    "project_id": "topito-mood",
    "storage_bucket": "topito-mood.appspot.com"
  },
  "client": [
    {
      "client_info": {
        "mobilesdk_app_id": "1:49146510855:android:1345120ff6d08a1a",
        "android_client_info": {
          "package_name": "com.rightcomtech.test.topitopoll"
        }
      },
      "oauth_client": [
        {
          "client_id": "49146510855-pkt7e21uoh6nnrm7384vem30k65a5o6r.apps.googleusercontent.com",
          "client_type": 1,
          "android_info": {
            "package_name": "com.rightcomtech.test.topitopoll",
            "certificate_hash": "81a47f13e3c4974bb1a79b858b6c21a2f4f3ccbf"
          }
        },
        {
          "client_id": "49146510855-potnd67o1iialnbgsri7eev7cjndq4kt.apps.googleusercontent.com",
          "client_type": 3
        }
      ],
      "api_key": [
        {
          "current_key": "AIzaSyCWQusGthfcNoy-EPijB9arwVrT-LW0EjU"
        }
      ],
      "services": {
        "analytics_service": {
          "status": 1
        },
        "appinvite_service": {
          "status": 2,
          "other_platform_oauth_client": [
            {
              "client_id": "49146510855-potnd67o1iialnbgsri7eev7cjndq4kt.apps.googleusercontent.com",
              "client_type": 3
            }
          ]
        },
        "ads_service": {
          "status": 2
        }
      }
    }
  ],
  "configuration_version": "1"
}